%YAML 1.1
%TAG !u! tag:unity3d.com,2011:
--- !u!1045 &1
EditorBuildSettings:
  m_ObjectHideFlags: 0
  serializedVersion: 2
  m_Scenes:
  - enabled: 0
    path: 
    guid: 00000000000000000000000000000000
  - enabled: 1
    path: Assets/Scene/Portada.unity
    guid: 39582dfd8f6def3469ca073b0859c0a1
  - enabled: 1
    path: Assets/Scene/Nivel_01.unity
    guid: cdea4f74ec4707043bc04828072020cb
  - enabled: 1
    path: Assets/Scene/Nivel_02.unity
    guid: 8aca8710bae7a0f45b93cf624241138c
  - enabled: 1
    path: Assets/Scene/Nivel_03.unity
    guid: 7aa85a72b76ec6b4586afd0e1cbf799d
  - enabled: 1
    path: Assets/Scene/Nivel_04.unity
    guid: f71960e3bc0fa86439f9d9c5e7ef2c1e
  m_configObjects: {}
